{
    "name": "Tests",
    "references": [],
    "optionalUnityReferences": [
        "TestAssemblies"
    ],
    "includePlatforms": [
        "Editor",
        "macOSStandalone"
    ],
    "excludePlatforms": [],
    "allowUnsafeCode": false
}